[
    {
        "Real Personal Consumption Expenditures, Billions": 9917.689,
        "Real Gross Private Domestic Investment, Billions": 2012.899,
        "Trade Balance": -408.776,
        "Real Government Consumption Expenditures and Gross Investment, Billions": 3084.28,
        "Quarter": "2010-01-01",
        "Gross Domestic Product (GDP)": 14681.063,
        "Nation": "United States of America",
        "Consumer Price Index (CPI) U6": 217.353,
        "Month": "2010-03-01"
    },
    {
        "Real Personal Consumption Expenditures, Billions": 9917.689,
        "Real Gross Private Domestic Investment, Billions": 2012.899,
        "Trade Balance": -408.776,
        "Real Government Consumption Expenditures and Gross Investment, Billions": 3084.28,
        "Quarter": "2010-01-01",
        "Gross Domestic Product (GDP)": 14681.063,
        "Nation": "United States of America",
        "Consumer Price Index (CPI) U6": 217.488,
        "Month": "2010-01-01"
    },
    {
        "Real Personal Consumption Expenditures, Billions": 9917.689,
        "Real Gross Private Domestic Investment, Billions": 2012.899,
        "Trade Balance": -408.776,
        "Real Government Consumption Expenditures and Gross Investment, Billions": 3084.28,
        "Quarter": "2010-01-01",
        "Gross Domestic Product (GDP)": 14681.063,
        "Nation": "United States of America",
        "Consumer Price Index (CPI) U6": 217.281,
        "Month": "2010-02-01"
    },
    {
        "Real Personal Consumption Expenditures, Billions": 9998.389,
        "Real Gross Private Domestic Investment, Billions": 2116.907,
        "Trade Balance": -469.707,
        "Real Government Consumption Expenditures and Gross Investment, Billions": 3106.209,
        "Quarter": "2010-04-01",
        "Gross Domestic Product (GDP)": 14888.6,
        "Nation": "United States of America",
        "Consumer Price Index (CPI) U6": 217.29,
        "Month": "2010-05-01"
    },
    {
        "Real Personal Consumption Expenditures, Billions": 9998.389,
        "Real Gross Private Domestic Investment, Billions": 2116.907,
        "Trade Balance": -469.707,
        "Real Government Consumption Expenditures and Gross Investment, Billions": 3106.209,
        "Quarter": "2010-04-01",
        "Gross Domestic Product (GDP)": 14888.6,
        "Nation": "United States of America",
        "Consumer Price Index (CPI) U6": 217.403,
        "Month": "2010-04-01"
    },
    {
        "Real Personal Consumption Expenditures, Billions": 9998.389,
        "Real Gross Private Domestic Investment, Billions": 2116.907,
        "Trade Balance": -469.707,
        "Real Government Consumption Expenditures and Gross Investment, Billions": 3106.209,
        "Quarter": "2010-04-01",
        "Gross Domestic Product (GDP)": 14888.6,
        "Nation": "United States of America",
        "Consumer Price Index (CPI) U6": 217.199,
        "Month": "2010-06-01"
    },
    {
        "Real Personal Consumption Expenditures, Billions": 10063.083,
        "Real Gross Private Domestic Investment, Billions": 2185.703,
        "Trade Balance": -498.445,
        "Real Government Consumption Expenditures and Gross Investment, Billions": 3103.533,
        "Quarter": "2010-07-01",
        "Gross Domestic Product (GDP)": 15057.66,
        "Nation": "United States of America",
        "Consumer Price Index (CPI) U6": 217.605,
        "Month": "2010-07-01"
    },
    {
        "Real Personal Consumption Expenditures, Billions": 10063.083,
        "Real Gross Private Domestic Investment, Billions": 2185.703,
        "Trade Balance": -498.445,
        "Real Government Consumption Expenditures and Gross Investment, Billions": 3103.533,
        "Quarter": "2010-07-01",
        "Gross Domestic Product (GDP)": 15057.66,
        "Nation": "United States of America",
        "Consumer Price Index (CPI) U6": 218.275,
        "Month": "2010-09-01"
    },
    {
        "Real Personal Consumption Expenditures, Billions": 10063.083,
        "Real Gross Private Domestic Investment, Billions": 2185.703,
        "Trade Balance": -498.445,
        "Real Government Consumption Expenditures and Gross Investment, Billions": 3103.533,
        "Quarter": "2010-07-01",
        "Gross Domestic Product (GDP)": 15057.66,
        "Nation": "United States of America",
        "Consumer Price Index (CPI) U6": 217.923,
        "Month": "2010-08-01"
    },
    {
        "Real Personal Consumption Expenditures, Billions": 10166.127,
        "Real Gross Private Domestic Investment, Billions": 2166.144,
        "Trade Balance": -458.094,
        "Real Government Consumption Expenditures and Gross Investment, Billions": 3071.524,
        "Quarter": "2010-10-01",
        "Gross Domestic Product (GDP)": 15230.208,
        "Nation": "United States of America",
        "Consumer Price Index (CPI) U6": 220.472,
        "Month": "2010-12-01"
    },
    {
        "Real Personal Consumption Expenditures, Billions": 10166.127,
        "Real Gross Private Domestic Investment, Billions": 2166.144,
        "Trade Balance": -458.094,
        "Real Government Consumption Expenditures and Gross Investment, Billions": 3071.524,
        "Quarter": "2010-10-01",
        "Gross Domestic Product (GDP)": 15230.208,
        "Nation": "United States of America",
        "Consumer Price Index (CPI) U6": 219.59,
        "Month": "2010-11-01"
    },
    {
        "Real Personal Consumption Expenditures, Billions": 10166.127,
        "Real Gross Private Domestic Investment, Billions": 2166.144,
        "Trade Balance": -458.094,
        "Real Government Consumption Expenditures and Gross Investment, Billions": 3071.524,
        "Quarter": "2010-10-01",
        "Gross Domestic Product (GDP)": 15230.208,
        "Nation": "United States of America",
        "Consumer Price Index (CPI) U6": 219.035,
        "Month": "2010-10-01"
    },
    {
        "Real Personal Consumption Expenditures, Billions": 10217.123,
        "Real Gross Private Domestic Investment, Billions": 2125.917,
        "Trade Balance": -466.181,
        "Real Government Consumption Expenditures and Gross Investment, Billions": 3012.216,
        "Quarter": "2011-01-01",
        "Gross Domestic Product (GDP)": 15238.371,
        "Nation": "United States of America",
        "Consumer Price Index (CPI) U6": 221.187,
        "Month": "2011-01-01"
    },
    {
        "Real Personal Consumption Expenditures, Billions": 10217.123,
        "Real Gross Private Domestic Investment, Billions": 2125.917,
        "Trade Balance": -466.181,
        "Real Government Consumption Expenditures and Gross Investment, Billions": 3012.216,
        "Quarter": "2011-01-01",
        "Gross Domestic Product (GDP)": 15238.371,
        "Nation": "United States of America",
        "Consumer Price Index (CPI) U6": 223.046,
        "Month": "2011-03-01"
    },
    {
        "Real Personal Consumption Expenditures, Billions": 10217.123,
        "Real Gross Private Domestic Investment, Billions": 2125.917,
        "Trade Balance": -466.181,
        "Real Government Consumption Expenditures and Gross Investment, Billions": 3012.216,
        "Quarter": "2011-01-01",
        "Gross Domestic Product (GDP)": 15238.371,
        "Nation": "United States of America",
        "Consumer Price Index (CPI) U6": 221.898,
        "Month": "2011-02-01"
    },
    {
        "Real Personal Consumption Expenditures, Billions": 10237.676,
        "Real Gross Private Domestic Investment, Billions": 2207.971,
        "Trade Balance": -455.249,
        "Real Government Consumption Expenditures and Gross Investment, Billions": 3008.995,
        "Quarter": "2011-04-01",
        "Gross Domestic Product (GDP)": 15460.926,
        "Nation": "United States of America",
        "Consumer Price Index (CPI) U6": 224.093,
        "Month": "2011-04-01"
    },
    {
        "Real Personal Consumption Expenditures, Billions": 10237.676,
        "Real Gross Private Domestic Investment, Billions": 2207.971,
        "Trade Balance": -455.249,
        "Real Government Consumption Expenditures and Gross Investment, Billions": 3008.995,
        "Quarter": "2011-04-01",
        "Gross Domestic Product (GDP)": 15460.926,
        "Nation": "United States of America",
        "Consumer Price Index (CPI) U6": 224.806,
        "Month": "2011-05-01"
    },
    {
        "Real Personal Consumption Expenditures, Billions": 10237.676,
        "Real Gross Private Domestic Investment, Billions": 2207.971,
        "Trade Balance": -455.249,
        "Real Government Consumption Expenditures and Gross Investment, Billions": 3008.995,
        "Quarter": "2011-04-01",
        "Gross Domestic Product (GDP)": 15460.926,
        "Nation": "United States of America",
        "Consumer Price Index (CPI) U6": 224.806,
        "Month": "2011-06-01"
    },
    {
        "Real Personal Consumption Expenditures, Billions": 10282.234,
        "Real Gross Private Domestic Investment, Billions": 2214.023,
        "Trade Balance": -454.323,
        "Real Government Consumption Expenditures and Gross Investment, Billions": 2990.006,
        "Quarter": "2011-07-01",
        "Gross Domestic Product (GDP)": 15587.125,
        "Nation": "United States of America",
        "Consumer Price Index (CPI) U6": 225.395,
        "Month": "2011-07-01"
    },
    {
        "Real Personal Consumption Expenditures, Billions": 10282.234,
        "Real Gross Private Domestic Investment, Billions": 2214.023,
        "Trade Balance": -454.323,
        "Real Government Consumption Expenditures and Gross Investment, Billions": 2990.006,
        "Quarter": "2011-07-01",
        "Gross Domestic Product (GDP)": 15587.125,
        "Nation": "United States of America",
        "Consumer Price Index (CPI) U6": 226.106,
        "Month": "2011-08-01"
    },
    {
        "Real Personal Consumption Expenditures, Billions": 10282.234,
        "Real Gross Private Domestic Investment, Billions": 2214.023,
        "Trade Balance": -454.323,
        "Real Government Consumption Expenditures and Gross Investment, Billions": 2990.006,
        "Quarter": "2011-07-01",
        "Gross Domestic Product (GDP)": 15587.125,
        "Nation": "United States of America",
        "Consumer Price Index (CPI) U6": 226.597,
        "Month": "2011-09-01"
    },
    {
        "Real Personal Consumption Expenditures, Billions": 10316.777,
        "Real Gross Private Domestic Investment, Billions": 2373.743,
        "Trade Balance": -461.679,
        "Real Government Consumption Expenditures and Gross Investment, Billions": 2978.279,
        "Quarter": "2011-10-01",
        "Gross Domestic Product (GDP)": 15785.312,
        "Nation": "United States of America",
        "Consumer Price Index (CPI) U6": 227.169,
        "Month": "2011-11-01"
    },
    {
        "Real Personal Consumption Expenditures, Billions": 10316.777,
        "Real Gross Private Domestic Investment, Billions": 2373.743,
        "Trade Balance": -461.679,
        "Real Government Consumption Expenditures and Gross Investment, Billions": 2978.279,
        "Quarter": "2011-10-01",
        "Gross Domestic Product (GDP)": 15785.312,
        "Nation": "United States of America",
        "Consumer Price Index (CPI) U6": 226.75,
        "Month": "2011-10-01"
    },
    {
        "Real Personal Consumption Expenditures, Billions": 10316.777,
        "Real Gross Private Domestic Investment, Billions": 2373.743,
        "Trade Balance": -461.679,
        "Real Government Consumption Expenditures and Gross Investment, Billions": 2978.279,
        "Quarter": "2011-10-01",
        "Gross Domestic Product (GDP)": 15785.312,
        "Nation": "United States of America",
        "Consumer Price Index (CPI) U6": 227.223,
        "Month": "2011-12-01"
    },
    {
        "Real Personal Consumption Expenditures, Billions": 10379.022,
        "Real Gross Private Domestic Investment, Billions": 2429.596,
        "Trade Balance": -462.696,
        "Real Government Consumption Expenditures and Gross Investment, Billions": 2963.714,
        "Quarter": "2012-01-01",
        "Gross Domestic Product (GDP)": 15973.881,
        "Nation": "United States of America",
        "Consumer Price Index (CPI) U6": 227.842,
        "Month": "2012-01-01"
    },
    {
        "Real Personal Consumption Expenditures, Billions": 10379.022,
        "Real Gross Private Domestic Investment, Billions": 2429.596,
        "Trade Balance": -462.696,
        "Real Government Consumption Expenditures and Gross Investment, Billions": 2963.714,
        "Quarter": "2012-01-01",
        "Gross Domestic Product (GDP)": 15973.881,
        "Nation": "United States of America",
        "Consumer Price Index (CPI) U6": 228.329,
        "Month": "2012-02-01"
    },
    {
        "Real Personal Consumption Expenditures, Billions": 10379.022,
        "Real Gross Private Domestic Investment, Billions": 2429.596,
        "Trade Balance": -462.696,
        "Real Government Consumption Expenditures and Gross Investment, Billions": 2963.714,
        "Quarter": "2012-01-01",
        "Gross Domestic Product (GDP)": 15973.881,
        "Nation": "United States of America",
        "Consumer Price Index (CPI) U6": 228.807,
        "Month": "2012-03-01"
    },
    {
        "Real Personal Consumption Expenditures, Billions": 10396.63,
        "Real Gross Private Domestic Investment, Billions": 2489.145,
        "Trade Balance": -452.688,
        "Real Government Consumption Expenditures and Gross Investment, Billions": 2949.378,
        "Quarter": "2012-04-01",
        "Gross Domestic Product (GDP)": 16121.851,
        "Nation": "United States of America",
        "Consumer Price Index (CPI) U6": 228.524,
        "Month": "2012-06-01"
    },
    {
        "Real Personal Consumption Expenditures, Billions": 10396.63,
        "Real Gross Private Domestic Investment, Billions": 2489.145,
        "Trade Balance": -452.688,
        "Real Government Consumption Expenditures and Gross Investment, Billions": 2949.378,
        "Quarter": "2012-04-01",
        "Gross Domestic Product (GDP)": 16121.851,
        "Nation": "United States of America",
        "Consumer Price Index (CPI) U6": 228.713,
        "Month": "2012-05-01"
    },
    {
        "Real Personal Consumption Expenditures, Billions": 10396.63,
        "Real Gross Private Domestic Investment, Billions": 2489.145,
        "Trade Balance": -452.688,
        "Real Government Consumption Expenditures and Gross Investment, Billions": 2949.378,
        "Quarter": "2012-04-01",
        "Gross Domestic Product (GDP)": 16121.851,
        "Nation": "United States of America",
        "Consumer Price Index (CPI) U6": 229.187,
        "Month": "2012-04-01"
    },
    {
        "Real Personal Consumption Expenditures, Billions": 10424.119,
        "Real Gross Private Domestic Investment, Billions": 2482.018,
        "Trade Balance": -446.802,
        "Real Government Consumption Expenditures and Gross Investment, Billions": 2940.856,
        "Quarter": "2012-07-01",
        "Gross Domestic Product (GDP)": 16227.939,
        "Nation": "United States of America",
        "Consumer Price Index (CPI) U6": 231.015,
        "Month": "2012-09-01"
    },
    {
        "Real Personal Consumption Expenditures, Billions": 10424.119,
        "Real Gross Private Domestic Investment, Billions": 2482.018,
        "Trade Balance": -446.802,
        "Real Government Consumption Expenditures and Gross Investment, Billions": 2940.856,
        "Quarter": "2012-07-01",
        "Gross Domestic Product (GDP)": 16227.939,
        "Nation": "United States of America",
        "Consumer Price Index (CPI) U6": 229.918,
        "Month": "2012-08-01"
    },
    {
        "Real Personal Consumption Expenditures, Billions": 10424.119,
        "Real Gross Private Domestic Investment, Billions": 2482.018,
        "Trade Balance": -446.802,
        "Real Government Consumption Expenditures and Gross Investment, Billions": 2940.856,
        "Quarter": "2012-07-01",
        "Gross Domestic Product (GDP)": 16227.939,
        "Nation": "United States of America",
        "Consumer Price Index (CPI) U6": 228.59,
        "Month": "2012-07-01"
    },
    {
        "Real Personal Consumption Expenditures, Billions": 10453.204,
        "Real Gross Private Domestic Investment, Billions": 2462.188,
        "Trade Balance": -426.044,
        "Real Government Consumption Expenditures and Gross Investment, Billions": 2912.269,
        "Quarter": "2012-10-01",
        "Gross Domestic Product (GDP)": 16297.349,
        "Nation": "United States of America",
        "Consumer Price Index (CPI) U6": 231.221,
        "Month": "2012-12-01"
    },
    {
        "Real Personal Consumption Expenditures, Billions": 10453.204,
        "Real Gross Private Domestic Investment, Billions": 2462.188,
        "Trade Balance": -426.044,
        "Real Government Consumption Expenditures and Gross Investment, Billions": 2912.269,
        "Quarter": "2012-10-01",
        "Gross Domestic Product (GDP)": 16297.349,
        "Nation": "United States of America",
        "Consumer Price Index (CPI) U6": 231.249,
        "Month": "2012-11-01"
    },
    {
        "Real Personal Consumption Expenditures, Billions": 10453.204,
        "Real Gross Private Domestic Investment, Billions": 2462.188,
        "Trade Balance": -426.044,
        "Real Government Consumption Expenditures and Gross Investment, Billions": 2912.269,
        "Quarter": "2012-10-01",
        "Gross Domestic Product (GDP)": 16297.349,
        "Nation": "United States of America",
        "Consumer Price Index (CPI) U6": 231.638,
        "Month": "2012-10-01"
    },
    {
        "Real Personal Consumption Expenditures, Billions": 10502.3,
        "Real Gross Private Domestic Investment, Billions": 2543.046,
        "Trade Balance": -414.359,
        "Real Government Consumption Expenditures and Gross Investment, Billions": 2880.574,
        "Quarter": "2013-01-01",
        "Gross Domestic Product (GDP)": 16475.44,
        "Nation": "United States of America",
        "Consumer Price Index (CPI) U6": 232.937,
        "Month": "2013-02-01"
    },
    {
        "Real Personal Consumption Expenditures, Billions": 10502.3,
        "Real Gross Private Domestic Investment, Billions": 2543.046,
        "Trade Balance": -414.359,
        "Real Government Consumption Expenditures and Gross Investment, Billions": 2880.574,
        "Quarter": "2013-01-01",
        "Gross Domestic Product (GDP)": 16475.44,
        "Nation": "United States of America",
        "Consumer Price Index (CPI) U6": 232.282,
        "Month": "2013-03-01"
    },
    {
        "Real Personal Consumption Expenditures, Billions": 10502.3,
        "Real Gross Private Domestic Investment, Billions": 2543.046,
        "Trade Balance": -414.359,
        "Real Government Consumption Expenditures and Gross Investment, Billions": 2880.574,
        "Quarter": "2013-01-01",
        "Gross Domestic Product (GDP)": 16475.44,
        "Nation": "United States of America",
        "Consumer Price Index (CPI) U6": 231.679,
        "Month": "2013-01-01"
    },
    {
        "Real Personal Consumption Expenditures, Billions": 10523.929,
        "Real Gross Private Domestic Investment, Billions": 2574.289,
        "Trade Balance": -421.097,
        "Real Government Consumption Expenditures and Gross Investment, Billions": 2866.231,
        "Quarter": "2013-04-01",
        "Gross Domestic Product (GDP)": 16541.39,
        "Nation": "United States of America",
        "Consumer Price Index (CPI) U6": 232.445,
        "Month": "2013-06-01"
    },
    {
        "Real Personal Consumption Expenditures, Billions": 10523.929,
        "Real Gross Private Domestic Investment, Billions": 2574.289,
        "Trade Balance": -421.097,
        "Real Government Consumption Expenditures and Gross Investment, Billions": 2866.231,
        "Quarter": "2013-04-01",
        "Gross Domestic Product (GDP)": 16541.39,
        "Nation": "United States of America",
        "Consumer Price Index (CPI) U6": 231.797,
        "Month": "2013-04-01"
    },
    {
        "Real Personal Consumption Expenditures, Billions": 10523.929,
        "Real Gross Private Domestic Investment, Billions": 2574.289,
        "Trade Balance": -421.097,
        "Real Government Consumption Expenditures and Gross Investment, Billions": 2866.231,
        "Quarter": "2013-04-01",
        "Gross Domestic Product (GDP)": 16541.39,
        "Nation": "United States of America",
        "Consumer Price Index (CPI) U6": 231.893,
        "Month": "2013-05-01"
    },
    {
        "Real Personal Consumption Expenditures, Billions": 10573.135,
        "Real Gross Private Domestic Investment, Billions": 2656.785,
        "Trade Balance": -416.098,
        "Real Government Consumption Expenditures and Gross Investment, Billions": 2851.955,
        "Quarter": "2013-07-01",
        "Gross Domestic Product (GDP)": 16749.349,
        "Nation": "United States of America",
        "Consumer Price Index (CPI) U6": 232.9,
        "Month": "2013-07-01"
    },
    {
        "Real Personal Consumption Expenditures, Billions": 10573.135,
        "Real Gross Private Domestic Investment, Billions": 2656.785,
        "Trade Balance": -416.098,
        "Real Government Consumption Expenditures and Gross Investment, Billions": 2851.955,
        "Quarter": "2013-07-01",
        "Gross Domestic Product (GDP)": 16749.349,
        "Nation": "United States of America",
        "Consumer Price Index (CPI) U6": 233.456,
        "Month": "2013-08-01"
    },
    {
        "Real Personal Consumption Expenditures, Billions": 10573.135,
        "Real Gross Private Domestic Investment, Billions": 2656.785,
        "Trade Balance": -416.098,
        "Real Government Consumption Expenditures and Gross Investment, Billions": 2851.955,
        "Quarter": "2013-07-01",
        "Gross Domestic Product (GDP)": 16749.349,
        "Nation": "United States of America",
        "Consumer Price Index (CPI) U6": 233.544,
        "Month": "2013-09-01"
    },
    {
        "Real Personal Consumption Expenditures, Billions": 10662.222,
        "Real Gross Private Domestic Investment, Billions": 2692.039,
        "Trade Balance": -368.072,
        "Real Government Consumption Expenditures and Gross Investment, Billions": 2831.451,
        "Quarter": "2013-10-01",
        "Gross Domestic Product (GDP)": 16999.888,
        "Nation": "United States of America",
        "Consumer Price Index (CPI) U6": 234.719,
        "Month": "2013-12-01"
    },
    {
        "Real Personal Consumption Expenditures, Billions": 10662.222,
        "Real Gross Private Domestic Investment, Billions": 2692.039,
        "Trade Balance": -368.072,
        "Real Government Consumption Expenditures and Gross Investment, Billions": 2831.451,
        "Quarter": "2013-10-01",
        "Gross Domestic Product (GDP)": 16999.888,
        "Nation": "United States of America",
        "Consumer Price Index (CPI) U6": 233.669,
        "Month": "2013-10-01"
    },
    {
        "Real Personal Consumption Expenditures, Billions": 10662.222,
        "Real Gross Private Domestic Investment, Billions": 2692.039,
        "Trade Balance": -368.072,
        "Real Government Consumption Expenditures and Gross Investment, Billions": 2831.451,
        "Quarter": "2013-10-01",
        "Gross Domestic Product (GDP)": 16999.888,
        "Nation": "United States of America",
        "Consumer Price Index (CPI) U6": 234.1,
        "Month": "2013-11-01"
    },
    {
        "Real Personal Consumption Expenditures, Billions": 10713.384,
        "Real Gross Private Domestic Investment, Billions": 2652.508,
        "Trade Balance": -410.995,
        "Real Government Consumption Expenditures and Gross Investment, Billions": 2827.201,
        "Quarter": "2014-01-01",
        "Gross Domestic Product (GDP)": 17031.324,
        "Nation": "United States of America",
        "Consumer Price Index (CPI) U6": 235.347,
        "Month": "2014-01-01"
    },
    {
        "Real Personal Consumption Expenditures, Billions": 10713.384,
        "Real Gross Private Domestic Investment, Billions": 2652.508,
        "Trade Balance": -410.995,
        "Real Government Consumption Expenditures and Gross Investment, Billions": 2827.201,
        "Quarter": "2014-01-01",
        "Gross Domestic Product (GDP)": 17031.324,
        "Nation": "United States of America",
        "Consumer Price Index (CPI) U6": 235.522,
        "Month": "2014-02-01"
    },
    {
        "Real Personal Consumption Expenditures, Billions": 10713.384,
        "Real Gross Private Domestic Investment, Billions": 2652.508,
        "Trade Balance": -410.995,
        "Real Government Consumption Expenditures and Gross Investment, Billions": 2827.201,
        "Quarter": "2014-01-01",
        "Gross Domestic Product (GDP)": 17031.324,
        "Nation": "United States of America",
        "Consumer Price Index (CPI) U6": 235.956,
        "Month": "2014-03-01"
    },
    {
        "Real Personal Consumption Expenditures, Billions": 10805.115,
        "Real Gross Private Domestic Investment, Billions": 2750.629,
        "Trade Balance": -426.16,
        "Real Government Consumption Expenditures and Gross Investment, Billions": 2834.668,
        "Quarter": "2014-04-01",
        "Gross Domestic Product (GDP)": 17320.921,
        "Nation": "United States of America",
        "Consumer Price Index (CPI) U6": 236.867,
        "Month": "2014-05-01"
    },
    {
        "Real Personal Consumption Expenditures, Billions": 10805.115,
        "Real Gross Private Domestic Investment, Billions": 2750.629,
        "Trade Balance": -426.16,
        "Real Government Consumption Expenditures and Gross Investment, Billions": 2834.668,
        "Quarter": "2014-04-01",
        "Gross Domestic Product (GDP)": 17320.921,
        "Nation": "United States of America",
        "Consumer Price Index (CPI) U6": 237.188,
        "Month": "2014-06-01"
    },
    {
        "Real Personal Consumption Expenditures, Billions": 10805.115,
        "Real Gross Private Domestic Investment, Billions": 2750.629,
        "Trade Balance": -426.16,
        "Real Government Consumption Expenditures and Gross Investment, Billions": 2834.668,
        "Quarter": "2014-04-01",
        "Gross Domestic Product (GDP)": 17320.921,
        "Nation": "United States of America",
        "Consumer Price Index (CPI) U6": 236.463,
        "Month": "2014-04-01"
    },
    {
        "Real Personal Consumption Expenditures, Billions": 10909.862,
        "Real Gross Private Domestic Investment, Billions": 2826.445,
        "Trade Balance": -416.66,
        "Real Government Consumption Expenditures and Gross Investment, Billions": 2849.507,
        "Quarter": "2014-07-01",
        "Gross Domestic Product (GDP)": 17622.257,
        "Nation": "United States of America",
        "Consumer Price Index (CPI) U6": 237.452,
        "Month": "2014-09-01"
    },
    {
        "Real Personal Consumption Expenditures, Billions": 10909.862,
        "Real Gross Private Domestic Investment, Billions": 2826.445,
        "Trade Balance": -416.66,
        "Real Government Consumption Expenditures and Gross Investment, Billions": 2849.507,
        "Quarter": "2014-07-01",
        "Gross Domestic Product (GDP)": 17622.257,
        "Nation": "United States of America",
        "Consumer Price Index (CPI) U6": 237.485,
        "Month": "2014-07-01"
    },
    {
        "Real Personal Consumption Expenditures, Billions": 10909.862,
        "Real Gross Private Domestic Investment, Billions": 2826.445,
        "Trade Balance": -416.66,
        "Real Government Consumption Expenditures and Gross Investment, Billions": 2849.507,
        "Quarter": "2014-07-01",
        "Gross Domestic Product (GDP)": 17622.257,
        "Nation": "United States of America",
        "Consumer Price Index (CPI) U6": 237.439,
        "Month": "2014-08-01"
    },
    {
        "Real Personal Consumption Expenditures, Billions": 11045.225,
        "Real Gross Private Domestic Investment, Billions": 2817.341,
        "Trade Balance": -456.929,
        "Real Government Consumption Expenditures and Gross Investment, Billions": 2845.038,
        "Quarter": "2014-10-01",
        "Gross Domestic Product (GDP)": 17735.933,
        "Nation": "United States of America",
        "Consumer Price Index (CPI) U6": 236.27,
        "Month": "2014-12-01"
    },
    {
        "Real Personal Consumption Expenditures, Billions": 11045.225,
        "Real Gross Private Domestic Investment, Billions": 2817.341,
        "Trade Balance": -456.929,
        "Real Government Consumption Expenditures and Gross Investment, Billions": 2845.038,
        "Quarter": "2014-10-01",
        "Gross Domestic Product (GDP)": 17735.933,
        "Nation": "United States of America",
        "Consumer Price Index (CPI) U6": 237.042,
        "Month": "2014-11-01"
    },
    {
        "Real Personal Consumption Expenditures, Billions": 11045.225,
        "Real Gross Private Domestic Investment, Billions": 2817.341,
        "Trade Balance": -456.929,
        "Real Government Consumption Expenditures and Gross Investment, Billions": 2845.038,
        "Quarter": "2014-10-01",
        "Gross Domestic Product (GDP)": 17735.933,
        "Nation": "United States of America",
        "Consumer Price Index (CPI) U6": 237.447,
        "Month": "2014-10-01"
    },
    {
        "Real Personal Consumption Expenditures, Billions": 11145.286,
        "Real Gross Private Domestic Investment, Billions": 2905.429,
        "Trade Balance": -524.143,
        "Real Government Consumption Expenditures and Gross Investment, Billions": 2855.726,
        "Quarter": "2015-01-01",
        "Gross Domestic Product (GDP)": 17874.715,
        "Nation": "United States of America",
        "Consumer Price Index (CPI) U6": 235.956,
        "Month": "2015-03-01"
    },
    {
        "Real Personal Consumption Expenditures, Billions": 11145.286,
        "Real Gross Private Domestic Investment, Billions": 2905.429,
        "Trade Balance": -524.143,
        "Real Government Consumption Expenditures and Gross Investment, Billions": 2855.726,
        "Quarter": "2015-01-01",
        "Gross Domestic Product (GDP)": 17874.715,
        "Nation": "United States of America",
        "Consumer Price Index (CPI) U6": 235.274,
        "Month": "2015-02-01"
    },
    {
        "Real Personal Consumption Expenditures, Billions": 11145.286,
        "Real Gross Private Domestic Investment, Billions": 2905.429,
        "Trade Balance": -524.143,
        "Real Government Consumption Expenditures and Gross Investment, Billions": 2855.726,
        "Quarter": "2015-01-01",
        "Gross Domestic Product (GDP)": 17874.715,
        "Nation": "United States of America",
        "Consumer Price Index (CPI) U6": 234.836,
        "Month": "2015-01-01"
    },
    {
        "Real Personal Consumption Expenditures, Billions": 11227.947,
        "Real Gross Private Domestic Investment, Billions": 2911.295,
        "Trade Balance": -526.214,
        "Real Government Consumption Expenditures and Gross Investment, Billions": 2879.885,
        "Quarter": "2015-04-01",
        "Gross Domestic Product (GDP)": 18093.224,
        "Nation": "United States of America",
        "Consumer Price Index (CPI) U6": 236.165,
        "Month": "2015-04-01"
    },
    {
        "Real Personal Consumption Expenditures, Billions": 11227.947,
        "Real Gross Private Domestic Investment, Billions": 2911.295,
        "Trade Balance": -526.214,
        "Real Government Consumption Expenditures and Gross Investment, Billions": 2879.885,
        "Quarter": "2015-04-01",
        "Gross Domestic Product (GDP)": 18093.224,
        "Nation": "United States of America",
        "Consumer Price Index (CPI) U6": 237.618,
        "Month": "2015-06-01"
    },
    {
        "Real Personal Consumption Expenditures, Billions": 11227.947,
        "Real Gross Private Domestic Investment, Billions": 2911.295,
        "Trade Balance": -526.214,
        "Real Government Consumption Expenditures and Gross Investment, Billions": 2879.885,
        "Quarter": "2015-04-01",
        "Gross Domestic Product (GDP)": 18093.224,
        "Nation": "United States of America",
        "Consumer Price Index (CPI) U6": 236.952,
        "Month": "2015-05-01"
    },
    {
        "Real Personal Consumption Expenditures, Billions": 11304.567,
        "Real Gross Private Domestic Investment, Billions": 2925.506,
        "Trade Balance": -559.309,
        "Real Government Consumption Expenditures and Gross Investment, Billions": 2888.251,
        "Quarter": "2015-07-01",
        "Gross Domestic Product (GDP)": 18227.689,
        "Nation": "United States of America",
        "Consumer Price Index (CPI) U6": 237.989,
        "Month": "2015-08-01"
    },
    {
        "Real Personal Consumption Expenditures, Billions": 11304.567,
        "Real Gross Private Domestic Investment, Billions": 2925.506,
        "Trade Balance": -559.309,
        "Real Government Consumption Expenditures and Gross Investment, Billions": 2888.251,
        "Quarter": "2015-07-01",
        "Gross Domestic Product (GDP)": 18227.689,
        "Nation": "United States of America",
        "Consumer Price Index (CPI) U6": 237.993,
        "Month": "2015-07-01"
    },
    {
        "Real Personal Consumption Expenditures, Billions": 11304.567,
        "Real Gross Private Domestic Investment, Billions": 2925.506,
        "Trade Balance": -559.309,
        "Real Government Consumption Expenditures and Gross Investment, Billions": 2888.251,
        "Quarter": "2015-07-01",
        "Gross Domestic Product (GDP)": 18227.689,
        "Nation": "United States of America",
        "Consumer Price Index (CPI) U6": 237.467,
        "Month": "2015-09-01"
    },
    {
        "Real Personal Consumption Expenditures, Billions": 11379.273,
        "Real Gross Private Domestic Investment, Billions": 2879.193,
        "Trade Balance": -571.525,
        "Real Government Consumption Expenditures and Gross Investment, Billions": 2890.238,
        "Quarter": "2015-10-01",
        "Gross Domestic Product (GDP)": 18287.226,
        "Nation": "United States of America",
        "Consumer Price Index (CPI) U6": 237.827,
        "Month": "2015-12-01"
    },
    {
        "Real Personal Consumption Expenditures, Billions": 11379.273,
        "Real Gross Private Domestic Investment, Billions": 2879.193,
        "Trade Balance": -571.525,
        "Real Government Consumption Expenditures and Gross Investment, Billions": 2890.238,
        "Quarter": "2015-10-01",
        "Gross Domestic Product (GDP)": 18287.226,
        "Nation": "United States of America",
        "Consumer Price Index (CPI) U6": 238.072,
        "Month": "2015-11-01"
    },
    {
        "Real Personal Consumption Expenditures, Billions": 11379.273,
        "Real Gross Private Domestic Investment, Billions": 2879.193,
        "Trade Balance": -571.525,
        "Real Government Consumption Expenditures and Gross Investment, Billions": 2890.238,
        "Quarter": "2015-10-01",
        "Gross Domestic Product (GDP)": 18287.226,
        "Nation": "United States of America",
        "Consumer Price Index (CPI) U6": 237.764,
        "Month": "2015-10-01"
    },
    {
        "Real Personal Consumption Expenditures, Billions": 11430.549,
        "Real Gross Private Domestic Investment, Billions": 2849.839,
        "Trade Balance": -584.218,
        "Real Government Consumption Expenditures and Gross Investment, Billions": 2903.187,
        "Quarter": "2016-01-01",
        "Gross Domestic Product (GDP)": 18325.187,
        "Nation": "United States of America",
        "Consumer Price Index (CPI) U6": 238.022,
        "Month": "2016-03-01"
    },
    {
        "Real Personal Consumption Expenditures, Billions": 11430.549,
        "Real Gross Private Domestic Investment, Billions": 2849.839,
        "Trade Balance": -584.218,
        "Real Government Consumption Expenditures and Gross Investment, Billions": 2903.187,
        "Quarter": "2016-01-01",
        "Gross Domestic Product (GDP)": 18325.187,
        "Nation": "United States of America",
        "Consumer Price Index (CPI) U6": 237.532,
        "Month": "2016-02-01"
    },
    {
        "Real Personal Consumption Expenditures, Billions": 11430.549,
        "Real Gross Private Domestic Investment, Billions": 2849.839,
        "Trade Balance": -584.218,
        "Real Government Consumption Expenditures and Gross Investment, Billions": 2903.187,
        "Quarter": "2016-01-01",
        "Gross Domestic Product (GDP)": 18325.187,
        "Nation": "United States of America",
        "Consumer Price Index (CPI) U6": 237.99,
        "Month": "2016-01-01"
    },
    {
        "Real Personal Consumption Expenditures, Billions": 11537.728,
        "Real Gross Private Domestic Investment, Billions": 2830.237,
        "Trade Balance": -572.408,
        "Real Government Consumption Expenditures and Gross Investment, Billions": 2896.332,
        "Quarter": "2016-04-01",
        "Gross Domestic Product (GDP)": 18538.039,
        "Nation": "United States of America",
        "Consumer Price Index (CPI) U6": 238.843,
        "Month": "2016-04-01"
    },
    {
        "Real Personal Consumption Expenditures, Billions": 11537.728,
        "Real Gross Private Domestic Investment, Billions": 2830.237,
        "Trade Balance": -572.408,
        "Real Government Consumption Expenditures and Gross Investment, Billions": 2896.332,
        "Quarter": "2016-04-01",
        "Gross Domestic Product (GDP)": 18538.039,
        "Nation": "United States of America",
        "Consumer Price Index (CPI) U6": 239.439,
        "Month": "2016-05-01"
    },
    {
        "Real Personal Consumption Expenditures, Billions": 11537.728,
        "Real Gross Private Domestic Investment, Billions": 2830.237,
        "Trade Balance": -572.408,
        "Real Government Consumption Expenditures and Gross Investment, Billions": 2896.332,
        "Quarter": "2016-04-01",
        "Gross Domestic Product (GDP)": 18538.039,
        "Nation": "United States of America",
        "Consumer Price Index (CPI) U6": 240.074,
        "Month": "2016-06-01"
    },
    {
        "Real Personal Consumption Expenditures, Billions": 11618.098,
        "Real Gross Private Domestic Investment, Billions": 2847.246,
        "Trade Balance": -557.294,
        "Real Government Consumption Expenditures and Gross Investment, Billions": 2899.936,
        "Quarter": "2016-07-01",
        "Gross Domestic Product (GDP)": 18729.13,
        "Nation": "United States of America",
        "Consumer Price Index (CPI) U6": 240.058,
        "Month": "2016-07-01"
    },
    {
        "Real Personal Consumption Expenditures, Billions": 11618.098,
        "Real Gross Private Domestic Investment, Billions": 2847.246,
        "Trade Balance": -557.294,
        "Real Government Consumption Expenditures and Gross Investment, Billions": 2899.936,
        "Quarter": "2016-07-01",
        "Gross Domestic Product (GDP)": 18729.13,
        "Nation": "United States of America",
        "Consumer Price Index (CPI) U6": 240.569,
        "Month": "2016-08-01"
    },
    {
        "Real Personal Consumption Expenditures, Billions": 11618.098,
        "Real Gross Private Domestic Investment, Billions": 2847.246,
        "Trade Balance": -557.294,
        "Real Government Consumption Expenditures and Gross Investment, Billions": 2899.936,
        "Quarter": "2016-07-01",
        "Gross Domestic Product (GDP)": 18729.13,
        "Nation": "United States of America",
        "Consumer Price Index (CPI) U6": 241.017,
        "Month": "2016-09-01"
    },
    {
        "Real Personal Consumption Expenditures, Billions": 11702.12,
        "Real Gross Private Domestic Investment, Billions": 2905.72,
        "Trade Balance": -631.08,
        "Real Government Consumption Expenditures and Gross Investment, Billions": 2901.184,
        "Quarter": "2016-10-01",
        "Gross Domestic Product (GDP)": 18905.545,
        "Nation": "United States of America",
        "Consumer Price Index (CPI) U6": 241.667,
        "Month": "2016-10-01"
    },
    {
        "Real Personal Consumption Expenditures, Billions": 11702.12,
        "Real Gross Private Domestic Investment, Billions": 2905.72,
        "Trade Balance": -631.08,
        "Real Government Consumption Expenditures and Gross Investment, Billions": 2901.184,
        "Quarter": "2016-10-01",
        "Gross Domestic Product (GDP)": 18905.545,
        "Nation": "United States of America",
        "Consumer Price Index (CPI) U6": 242.081,
        "Month": "2016-11-01"
    },
    {
        "Real Personal Consumption Expenditures, Billions": 11702.12,
        "Real Gross Private Domestic Investment, Billions": 2905.72,
        "Trade Balance": -631.08,
        "Real Government Consumption Expenditures and Gross Investment, Billions": 2901.184,
        "Quarter": "2016-10-01",
        "Gross Domestic Product (GDP)": 18905.545,
        "Nation": "United States of America",
        "Consumer Price Index (CPI) U6": 242.784,
        "Month": "2016-12-01"
    },
    {
        "Real Personal Consumption Expenditures, Billions": 11758.04,
        "Real Gross Private Domestic Investment, Billions": 2896.996,
        "Trade Balance": -622.219,
        "Real Government Consumption Expenditures and Gross Investment, Billions": 2896.627,
        "Quarter": "2017-01-01",
        "Gross Domestic Product (GDP)": 19057.705,
        "Nation": "United States of America",
        "Consumer Price Index (CPI) U6": 244.028,
        "Month": "2017-01-01"
    },
    {
        "Real Personal Consumption Expenditures, Billions": 11758.04,
        "Real Gross Private Domestic Investment, Billions": 2896.996,
        "Trade Balance": -622.219,
        "Real Government Consumption Expenditures and Gross Investment, Billions": 2896.627,
        "Quarter": "2017-01-01",
        "Gross Domestic Product (GDP)": 19057.705,
        "Nation": "United States of America",
        "Consumer Price Index (CPI) U6": 244.102,
        "Month": "2017-02-01"
    },
    {
        "Real Personal Consumption Expenditures, Billions": 11758.04,
        "Real Gross Private Domestic Investment, Billions": 2896.996,
        "Trade Balance": -622.219,
        "Real Government Consumption Expenditures and Gross Investment, Billions": 2896.627,
        "Quarter": "2017-01-01",
        "Gross Domestic Product (GDP)": 19057.705,
        "Nation": "United States of America",
        "Consumer Price Index (CPI) U6": 243.717,
        "Month": "2017-03-01"
    },
    {
        "Real Personal Consumption Expenditures, Billions": 11852.958,
        "Real Gross Private Domestic Investment, Billions": 2924.674,
        "Trade Balance": -613.633,
        "Real Government Consumption Expenditures and Gross Investment, Billions": 2895.23,
        "Quarter": "2017-04-01",
        "Gross Domestic Product (GDP)": 19250.009,
        "Nation": "United States of America",
        "Consumer Price Index (CPI) U6": 244.087,
        "Month": "2017-04-01"
    },
    {
        "Real Personal Consumption Expenditures, Billions": 11852.958,
        "Real Gross Private Domestic Investment, Billions": 2924.674,
        "Trade Balance": -613.633,
        "Real Government Consumption Expenditures and Gross Investment, Billions": 2895.23,
        "Quarter": "2017-04-01",
        "Gross Domestic Product (GDP)": 19250.009,
        "Nation": "United States of America",
        "Consumer Price Index (CPI) U6": 243.911,
        "Month": "2017-05-01"
    },
    {
        "Real Personal Consumption Expenditures, Billions": 11852.958,
        "Real Gross Private Domestic Investment, Billions": 2924.674,
        "Trade Balance": -613.633,
        "Real Government Consumption Expenditures and Gross Investment, Billions": 2895.23,
        "Quarter": "2017-04-01",
        "Gross Domestic Product (GDP)": 19250.009,
        "Nation": "United States of America",
        "Consumer Price Index (CPI) U6": 244.032,
        "Month": "2017-06-01"
    },
    {
        "Real Personal Consumption Expenditures, Billions": 11916.576,
        "Real Gross Private Domestic Investment, Billions": 2976.536,
        "Trade Balance": -597.547,
        "Real Government Consumption Expenditures and Gross Investment, Billions": 2899.965,
        "Quarter": "2017-07-01",
        "Gross Domestic Product (GDP)": 19500.602,
        "Nation": "United States of America",
        "Consumer Price Index (CPI) U6": 244.236,
        "Month": "2017-07-01"
    },
    {
        "Real Personal Consumption Expenditures, Billions": 11916.576,
        "Real Gross Private Domestic Investment, Billions": 2976.536,
        "Trade Balance": -597.547,
        "Real Government Consumption Expenditures and Gross Investment, Billions": 2899.965,
        "Quarter": "2017-07-01",
        "Gross Domestic Product (GDP)": 19500.602,
        "Nation": "United States of America",
        "Consumer Price Index (CPI) U6": 246.392,
        "Month": "2017-09-01"
    },
    {
        "Real Personal Consumption Expenditures, Billions": 11916.576,
        "Real Gross Private Domestic Investment, Billions": 2976.536,
        "Trade Balance": -597.547,
        "Real Government Consumption Expenditures and Gross Investment, Billions": 2899.965,
        "Quarter": "2017-07-01",
        "Gross Domestic Product (GDP)": 19500.602,
        "Nation": "United States of America",
        "Consumer Price Index (CPI) U6": 245.262,
        "Month": "2017-08-01"
    },
    {
        "Real Personal Consumption Expenditures, Billions": 12035.227,
        "Real Gross Private Domestic Investment, Billions": 3011.05,
        "Trade Balance": -653.924,
        "Real Government Consumption Expenditures and Gross Investment, Billions": 2921.516,
        "Quarter": "2017-10-01",
        "Gross Domestic Product (GDP)": 19754.102,
        "Nation": "United States of America",
        "Consumer Price Index (CPI) U6": 247.411,
        "Month": "2017-11-01"
    },
    {
        "Real Personal Consumption Expenditures, Billions": 12035.227,
        "Real Gross Private Domestic Investment, Billions": 3011.05,
        "Trade Balance": -653.924,
        "Real Government Consumption Expenditures and Gross Investment, Billions": 2921.516,
        "Quarter": "2017-10-01",
        "Gross Domestic Product (GDP)": 19754.102,
        "Nation": "United States of America",
        "Consumer Price Index (CPI) U6": 246.583,
        "Month": "2017-10-01"
    },
    {
        "Real Personal Consumption Expenditures, Billions": 12035.227,
        "Real Gross Private Domestic Investment, Billions": 3011.05,
        "Trade Balance": -653.924,
        "Real Government Consumption Expenditures and Gross Investment, Billions": 2921.516,
        "Quarter": "2017-10-01",
        "Gross Domestic Product (GDP)": 19754.102,
        "Nation": "United States of America",
        "Consumer Price Index (CPI) U6": 247.91,
        "Month": "2017-12-01"
    },
    {
        "Real Personal Consumption Expenditures, Billions": 12066.821,
        "Real Gross Private Domestic Investment, Billions": 3064.373,
        "Trade Balance": -645.876,
        "Real Government Consumption Expenditures and Gross Investment, Billions": 2929.975,
        "Quarter": "2018-01-01",
        "Gross Domestic Product (GDP)": 19965.326,
        "Nation": "United States of America",
        "Consumer Price Index (CPI) U6": 249.462,
        "Month": "2018-03-01"
    },
    {
        "Real Personal Consumption Expenditures, Billions": 12066.821,
        "Real Gross Private Domestic Investment, Billions": 3064.373,
        "Trade Balance": -645.876,
        "Real Government Consumption Expenditures and Gross Investment, Billions": 2929.975,
        "Quarter": "2018-01-01",
        "Gross Domestic Product (GDP)": 19965.326,
        "Nation": "United States of America",
        "Consumer Price Index (CPI) U6": 249.619,
        "Month": "2018-02-01"
    },
    {
        "Real Personal Consumption Expenditures, Billions": 12066.821,
        "Real Gross Private Domestic Investment, Billions": 3064.373,
        "Trade Balance": -645.876,
        "Real Government Consumption Expenditures and Gross Investment, Billions": 2929.975,
        "Quarter": "2018-01-01",
        "Gross Domestic Product (GDP)": 19965.326,
        "Nation": "United States of America",
        "Consumer Price Index (CPI) U6": 249.245,
        "Month": "2018-01-01"
    }
]