[
    {
        "Category": "Commercial Data Provider",
        "DataSourceName": "IRI InfoScan",
        "Id": 2368849,
        "ProviderLogo": "https://s3.us-east-2.amazonaws.com/switchboardx-provider-logos/IRI-logo.jpg",
        "ProviderName": "Information Resources, Inc. (IRI)",
        "RelatedVariables": [
            [
                2716799,
                "Any Merch CWD"
            ],
            [
                2716798,
                "Dollars"
            ],
            [
                2716801,
                "Category Weighted Distribution (CWD)"
            ],
            [
                2716800,
                "Any Merch Points of CWD"
            ],
            [
                2716807,
                "Feat Only Points of CWD"
            ],
            [
                2716806,
                "Feat Only CWD"
            ],
            [
                2716809,
                "Any Merch Base Dollars"
            ],
            [
                2716808,
                "Points of CWD"
            ],
            [
                2716803,
                "Disp Only Points of CWD"
            ],
            [
                2716802,
                "Disp Only CWD"
            ],
            [
                2716805,
                "F&D Points of CWD"
            ],
            [
                2716804,
                "F&D CWD"
            ],
            [
                2716836,
                "Volume"
            ],
            [
                2716837,
                "Volume per $MM ACV"
            ],
            [
                2716834,
                "Feat Only Base Volume"
            ],
            [
                2716835,
                "Feat Only Volume"
            ],
            [
                2716838,
                "Volume Share of Category"
            ],
            [
                2716828,
                "Any Merch Volume"
            ],
            [
                2716829,
                "Base Volume"
            ],
            [
                2716826,
                "Wtd Avg PCT Price Reduction"
            ],
            [
                2716827,
                "Any Merch Base Volume"
            ],
            [
                2716832,
                "F&D Base Volume"
            ],
            [
                2716833,
                "F&D Volume"
            ],
            [
                2716830,
                "Disp Only Base Volume"
            ],
            [
                2716831,
                "Disp Only Volume"
            ],
            [
                2716821,
                "Product Development Index"
            ],
            [
                2716820,
                "Households"
            ],
            [
                2716819,
                "Census Population"
            ],
            [
                2716818,
                "Category Development Index"
            ],
            [
                2716825,
                "Wtd Avg Base Price Per Volume"
            ],
            [
                2716824,
                "Price per Volume"
            ],
            [
                2716823,
                "Discount"
            ],
            [
                2716822,
                "Any Merch Discount"
            ],
            [
                2716813,
                "Disp Only Dollars"
            ],
            [
                2716812,
                "Disp Only Base Dollars"
            ],
            [
                2716811,
                "Base Dollars"
            ],
            [
                2716810,
                "Any Merch Dollars"
            ],
            [
                2716817,
                "Feat Only Dollars"
            ],
            [
                2716816,
                "Feat Only Base Dollars"
            ],
            [
                2716815,
                "F&D Dollars"
            ],
            [
                2716814,
                "F&D Base Dollars"
            ]
        ],
        "ShortDescription": "Infoscan is IRI's weekly sales tracking system used in the CPG industry. Each week thousands of grocery, drug, convenience, and mass merchandiser retail stores deliver the product data collected by their scanners. IRI sorts, analyzes, and verifies product price and volume, and then delivers final Infoscan sales information (which includes myriad promotional influencers and calculate measures) to its customers and retail partners for their use."
    }
]